// Jest Snapshot v1, https://goo.gl/fbAQLP

exports[`HeaderAction - HeaderActionSearch it emits "open-search" and calls "openSearch" method 1`] = `
<header
  class="br-header mb-4 compact"
>
  <div
    class="container-lg"
  >
    <div
      class="header-top"
    >
      <div
        class="header-logo"
      >
        <!--v-if-->
        <!--v-if-->
        <!--v-if-->
      </div>
      
      <div
        slot="headerAction"
      >
        <div
          class="header-actions"
          style="float: right;"
        >
          <div
            class="header-links dropdown"
          >
            <button
              aria-label="Acesso Rápido"
              class="br-button small circle"
              data-toggle="dropdown"
              type="button"
            >
              
              <icon-base-stub
                class=""
                familyname="fas"
                iconname="ellipsis-v"
              />
              
            </button>
            <div
              class="br-list"
              data-toggle="false"
              data-unique="false"
              density="large"
              role="list"
            >
              <!--v-if-->
              <!--v-if-->
              
              <div
                class="header"
              >
                <div
                  class="title"
                >
                  Acesso Rápido
                </div>
              </div>
              
              
              <a
                class="br-item"
                data-toggle="selection"
                href="#"
                name="Link de acesso 1"
              >
                <div
                  class="content"
                >
                  
                  Link de acesso 1
                  
                </div>
              </a>
              <!--v-if-->
              
              
              <a
                class="br-item"
                data-toggle="selection"
                href="#"
                name="Link de acesso 2"
              >
                <div
                  class="content"
                >
                  
                  Link de acesso 2
                  
                </div>
              </a>
              <!--v-if-->
              
              
              <a
                class="br-item"
                data-toggle="selection"
                href="#"
                name="Link de acesso 3"
              >
                <div
                  class="content"
                >
                  
                  Link de acesso 3
                  
                </div>
              </a>
              <!--v-if-->
              
              
              
            </div>
          </div>
          <br-divider-stub
            class="mx-half mx-sm-1"
            dashed="false"
            vertical="true"
          />
          <div
            class="header-functions dropdown"
          >
            <button
              aria-label="Funcionalidades do Sistema"
              class="br-button small circle"
              data-toggle="dropdown"
              type="button"
            >
              
              <icon-base-stub
                class=""
                familyname="fas"
                iconname="th"
              />
              
            </button>
            <div
              class="br-list"
              data-toggle="false"
              data-unique="false"
              density="large"
              role="list"
            >
              <!--v-if-->
              <!--v-if-->
              
              <div
                class="header"
              >
                <div
                  class="title"
                >
                  Funcionalidades do Sistema
                </div>
              </div>
              
              
              <a
                class="align-items-center br-item"
                href="#"
              >
                <div
                  class="content"
                >
                  
                  <button
                    aria-label=""
                    class="br-button small circle"
                    title="Funcionalidade 1"
                    type="button"
                  >
                    
                    <icon-base-stub
                      class=""
                      familyname="fas"
                      iconname="chart-bar"
                    />
                    <span
                      class="text"
                    >
                      Funcionalidade 1
                    </span>
                    
                  </button>
                  
                </div>
              </a>
              <!--v-if-->
              
              
              
            </div>
          </div>
          <div
            class="header-search-trigger"
            style="display: block;"
          >
            <button
              aria-label="Abrir Busca"
              class="br-button middle circle"
              data-target=".header-search"
              data-toggle="search"
              type="button"
            >
              
              <icon-base-stub
                class=""
                familyname="fas"
                iconname="search"
              />
              <!--v-if-->
              
            </button>
          </div>
          <!--v-if-->
        </div>
      </div>
      
    </div>
    <div
      class="header-bottom"
    >
      <div
        class="header-menu"
      >
        <!--v-if-->
        <div
          class="header-info"
        >
          <!--v-if-->
          <!--v-if-->
        </div>
      </div>
      <div
        class="header-search"
      >
        <br-header-search-stub
          id="searchbox1"
          label="Texto da pesquisa"
          placeholder="O que você procura?"
        />
      </div>
    </div>
  </div>
</header>
`;

exports[`HeaderAction - HeaderActionSearch it emits "open-search" and calls "openSearch" method 2`] = `
<header
  class="br-header mb-4 compact"
>
  <div
    class="container-lg"
  >
    <div
      class="header-top"
    >
      <div
        class="header-logo"
      >
        <!--v-if-->
        <!--v-if-->
        <!--v-if-->
      </div>
      
      <div
        slot="headerAction"
      >
        <div
          class="header-actions"
          style="float: right;"
        >
          <div
            class="header-links dropdown"
          >
            <button
              aria-label="Acesso Rápido"
              class="br-button small circle"
              data-toggle="dropdown"
              type="button"
            >
              
              <icon-base-stub
                class=""
                familyname="fas"
                iconname="ellipsis-v"
              />
              
            </button>
            <div
              class="br-list"
              data-toggle="false"
              data-unique="false"
              density="large"
              role="list"
            >
              <!--v-if-->
              <!--v-if-->
              
              <div
                class="header"
              >
                <div
                  class="title"
                >
                  Acesso Rápido
                </div>
              </div>
              
              
              <a
                class="br-item"
                data-toggle="selection"
                href="#"
                name="Link de acesso 1"
              >
                <div
                  class="content"
                >
                  
                  Link de acesso 1
                  
                </div>
              </a>
              <!--v-if-->
              
              
              <a
                class="br-item"
                data-toggle="selection"
                href="#"
                name="Link de acesso 2"
              >
                <div
                  class="content"
                >
                  
                  Link de acesso 2
                  
                </div>
              </a>
              <!--v-if-->
              
              
              <a
                class="br-item"
                data-toggle="selection"
                href="#"
                name="Link de acesso 3"
              >
                <div
                  class="content"
                >
                  
                  Link de acesso 3
                  
                </div>
              </a>
              <!--v-if-->
              
              
              
            </div>
          </div>
          <br-divider-stub
            class="mx-half mx-sm-1"
            dashed="false"
            vertical="true"
          />
          <div
            class="header-functions dropdown"
          >
            <button
              aria-label="Funcionalidades do Sistema"
              class="br-button small circle"
              data-toggle="dropdown"
              type="button"
            >
              
              <icon-base-stub
                class=""
                familyname="fas"
                iconname="th"
              />
              
            </button>
            <div
              class="br-list"
              data-toggle="false"
              data-unique="false"
              density="large"
              role="list"
            >
              <!--v-if-->
              <!--v-if-->
              
              <div
                class="header"
              >
                <div
                  class="title"
                >
                  Funcionalidades do Sistema
                </div>
              </div>
              
              
              <a
                class="align-items-center br-item"
                href="#"
              >
                <div
                  class="content"
                >
                  
                  <button
                    aria-label=""
                    class="br-button small circle"
                    title="Funcionalidade 1"
                    type="button"
                  >
                    
                    <icon-base-stub
                      class=""
                      familyname="fas"
                      iconname="chart-bar"
                    />
                    <span
                      class="text"
                    >
                      Funcionalidade 1
                    </span>
                    
                  </button>
                  
                </div>
              </a>
              <!--v-if-->
              
              
              
            </div>
          </div>
          <div
            class="header-search-trigger"
            style="display: block;"
          >
            <button
              aria-label="Abrir Busca"
              class="br-button middle circle"
              data-target=".header-search"
              data-toggle="search"
              type="button"
            >
              
              <icon-base-stub
                class=""
                familyname="fas"
                iconname="search"
              />
              <!--v-if-->
              
            </button>
          </div>
          <!--v-if-->
        </div>
      </div>
      
    </div>
    <div
      class="header-bottom"
    >
      <div
        class="header-menu"
      >
        <!--v-if-->
        <div
          class="header-info"
        >
          <!--v-if-->
          <!--v-if-->
        </div>
      </div>
      <div
        class="header-search active"
      >
        <br-header-search-stub
          id="searchbox1"
          label="Texto da pesquisa"
          placeholder="O que você procura?"
        />
      </div>
    </div>
  </div>
</header>
`;
